\relax 
\providecommand\hyper@newdestlabel[2]{}
\providecommand\HyperFirstAtBeginDocument{\AtBeginDocument}
\HyperFirstAtBeginDocument{\ifx\hyper@anchor\@undefined
\global\let\oldcontentsline\contentsline
\gdef\contentsline#1#2#3#4{\oldcontentsline{#1}{#2}{#3}}
\global\let\oldnewlabel\newlabel
\gdef\newlabel#1#2{\newlabelxx{#1}#2}
\gdef\newlabelxx#1#2#3#4#5#6{\oldnewlabel{#1}{{#2}{#3}}}
\AtEndDocument{\ifx\hyper@anchor\@undefined
\let\contentsline\oldcontentsline
\let\newlabel\oldnewlabel
\fi}
\fi}
\global\let\hyper@last\relax 
\gdef\HyperFirstAtBeginDocument#1{#1}
\providecommand\HyField@AuxAddToFields[1]{}
\providecommand\HyField@AuxAddToCoFields[2]{}
\providecommand\babel@aux[2]{}
\@nameuse{bbl@beforestart}
\catcode `"\active 
\catcode `<\active 
\catcode `>\active 
\@nameuse{es@quoting}
\babel@aux{spanish}{}
\@writefile{nav}{\headcommand {\slideentry {0}{0}{1}{1/1}{}{0}}}
\@writefile{nav}{\headcommand {\beamer@framepages {1}{1}}}
\@writefile{nav}{\headcommand {\slideentry {0}{0}{2}{2/2}{}{0}}}
\@writefile{nav}{\headcommand {\beamer@framepages {2}{2}}}
\@writefile{toc}{\beamer@sectionintoc {1}{Bienvenida}{3}{0}{1}}
\@writefile{nav}{\headcommand {\beamer@sectionpages {1}{2}}}
\@writefile{nav}{\headcommand {\beamer@subsectionpages {1}{2}}}
\@writefile{nav}{\headcommand {\sectionentry {1}{Bienvenida}{3}{Bienvenida}{0}}}
\@writefile{nav}{\headcommand {\slideentry {1}{0}{1}{3/3}{}{0}}}
\@writefile{nav}{\headcommand {\beamer@framepages {3}{3}}}
\@writefile{nav}{\headcommand {\slideentry {1}{0}{2}{4/4}{}{0}}}
\@writefile{nav}{\headcommand {\beamer@framepages {4}{4}}}
\@writefile{toc}{\beamer@sectionintoc {2}{Herramientas de desarrollo}{5}{0}{2}}
\@writefile{nav}{\headcommand {\beamer@sectionpages {3}{4}}}
\@writefile{nav}{\headcommand {\beamer@subsectionpages {3}{4}}}
\@writefile{nav}{\headcommand {\sectionentry {2}{Herramientas de desarrollo}{5}{Herramientas de desarrollo}{0}}}
\@writefile{nav}{\headcommand {\slideentry {2}{0}{1}{5/5}{}{0}}}
\@writefile{nav}{\headcommand {\beamer@framepages {5}{5}}}
\@writefile{nav}{\headcommand {\slideentry {2}{0}{2}{6/6}{}{0}}}
\@writefile{nav}{\headcommand {\beamer@framepages {6}{6}}}
\@writefile{toc}{\beamer@sectionintoc {3}{Generalidades}{7}{0}{3}}
\@writefile{nav}{\headcommand {\beamer@sectionpages {5}{6}}}
\@writefile{nav}{\headcommand {\beamer@subsectionpages {5}{6}}}
\@writefile{nav}{\headcommand {\sectionentry {3}{Generalidades}{7}{Generalidades}{0}}}
\@writefile{nav}{\headcommand {\slideentry {3}{0}{1}{7/7}{}{0}}}
\@writefile{nav}{\headcommand {\beamer@framepages {7}{7}}}
\@writefile{nav}{\headcommand {\slideentry {3}{0}{2}{8/8}{}{0}}}
\@writefile{nav}{\headcommand {\beamer@framepages {8}{8}}}
\providecommand*\caption@xref[2]{\@setref\relax\@undefined{#1}}
\newlabel{fig:MicroControlador}{{1}{9}{Sobre el lenguaje C.\relax }{Doc-Start}{}}
\@writefile{snm}{\beamer@slide {fig:MicroControlador}{9}}
\@writefile{nav}{\headcommand {\slideentry {3}{0}{3}{9/9}{}{0}}}
\@writefile{nav}{\headcommand {\beamer@framepages {9}{9}}}
\newlabel{fig:MicroControlador}{{2}{10}{God's programming lenguage.\relax }{Doc-Start}{}}
\@writefile{snm}{\beamer@slide {fig:MicroControlador}{10}}
\@writefile{nav}{\headcommand {\slideentry {3}{0}{4}{10/10}{}{0}}}
\@writefile{nav}{\headcommand {\beamer@framepages {10}{10}}}
\@writefile{nav}{\headcommand {\slideentry {3}{0}{5}{11/11}{}{0}}}
\@writefile{nav}{\headcommand {\beamer@framepages {11}{11}}}
\newlabel{fig:MicroControlador}{{3}{12}{Depurando código.\relax }{Doc-Start}{}}
\@writefile{snm}{\beamer@slide {fig:MicroControlador}{12}}
\@writefile{nav}{\headcommand {\slideentry {3}{0}{6}{12/12}{}{0}}}
\@writefile{nav}{\headcommand {\beamer@framepages {12}{12}}}
\newlabel{fig:MicroControlador}{{4}{13}{Documentar.\relax }{Doc-Start}{}}
\@writefile{snm}{\beamer@slide {fig:MicroControlador}{13}}
\@writefile{nav}{\headcommand {\slideentry {3}{0}{7}{13/13}{}{0}}}
\@writefile{nav}{\headcommand {\beamer@framepages {13}{13}}}
\newlabel{fig:MicroControlador}{{5}{14}{Comentarios innecesarios.\relax }{Doc-Start}{}}
\@writefile{snm}{\beamer@slide {fig:MicroControlador}{14}}
\@writefile{nav}{\headcommand {\slideentry {3}{0}{8}{14/14}{}{0}}}
\@writefile{nav}{\headcommand {\beamer@framepages {14}{14}}}
\newlabel{fig:MicroControlador}{{6}{15}{Calma.\relax }{Doc-Start}{}}
\@writefile{snm}{\beamer@slide {fig:MicroControlador}{15}}
\@writefile{nav}{\headcommand {\slideentry {3}{0}{9}{15/15}{}{0}}}
\@writefile{nav}{\headcommand {\beamer@framepages {15}{15}}}
\newlabel{fig:MicroControlador}{{7}{16}{Punto y coma.\relax }{Doc-Start}{}}
\@writefile{snm}{\beamer@slide {fig:MicroControlador}{16}}
\@writefile{nav}{\headcommand {\slideentry {3}{0}{10}{16/16}{}{0}}}
\@writefile{nav}{\headcommand {\beamer@framepages {16}{16}}}
\@writefile{toc}{\beamer@sectionintoc {4}{Variables}{17}{0}{4}}
\@writefile{nav}{\headcommand {\beamer@sectionpages {7}{16}}}
\@writefile{nav}{\headcommand {\beamer@subsectionpages {7}{16}}}
\@writefile{nav}{\headcommand {\sectionentry {4}{Variables}{17}{Variables}{0}}}
\@writefile{nav}{\headcommand {\slideentry {4}{0}{1}{17/17}{}{0}}}
\@writefile{nav}{\headcommand {\beamer@framepages {17}{17}}}
\newlabel{table:tablavariables}{{1}{18}{Tipos de variables.\relax }{Doc-Start}{}}
\@writefile{snm}{\beamer@slide {table:tablavariables}{18}}
\@writefile{nav}{\headcommand {\slideentry {4}{0}{2}{18/18}{}{0}}}
\@writefile{nav}{\headcommand {\beamer@framepages {18}{18}}}
\newlabel{table:tablavariables2}{{2}{19}{Continuación tipos de variables.\relax }{Doc-Start}{}}
\@writefile{snm}{\beamer@slide {table:tablavariables2}{19}}
\@writefile{nav}{\headcommand {\slideentry {4}{0}{3}{19/19}{}{0}}}
\@writefile{nav}{\headcommand {\beamer@framepages {19}{19}}}
\@writefile{nav}{\headcommand {\slideentry {4}{0}{4}{20/20}{}{0}}}
\@writefile{nav}{\headcommand {\beamer@framepages {20}{20}}}
\@writefile{toc}{\beamer@sectionintoc {5}{Estructuras de control}{21}{0}{5}}
\@writefile{nav}{\headcommand {\beamer@sectionpages {17}{20}}}
\@writefile{nav}{\headcommand {\beamer@subsectionpages {17}{20}}}
\@writefile{nav}{\headcommand {\sectionentry {5}{Estructuras de control}{21}{Estructuras de control}{0}}}
\@writefile{nav}{\headcommand {\slideentry {5}{0}{1}{21/21}{}{0}}}
\@writefile{nav}{\headcommand {\beamer@framepages {21}{21}}}
\newlabel{fig:MicroControlador}{{8}{22}{DFD de la sentencia if.\relax }{Doc-Start}{}}
\@writefile{snm}{\beamer@slide {fig:MicroControlador}{22}}
\@writefile{nav}{\headcommand {\slideentry {5}{0}{2}{22/22}{}{0}}}
\@writefile{nav}{\headcommand {\beamer@framepages {22}{22}}}
\@writefile{nav}{\headcommand {\slideentry {5}{0}{3}{23/23}{}{0}}}
\@writefile{nav}{\headcommand {\beamer@framepages {23}{23}}}
\newlabel{fig:MicroControlador}{{9}{24}{DFD de la sentencia switch.\relax }{Doc-Start}{}}
\@writefile{snm}{\beamer@slide {fig:MicroControlador}{24}}
\@writefile{nav}{\headcommand {\slideentry {5}{0}{4}{24/24}{}{0}}}
\@writefile{nav}{\headcommand {\beamer@framepages {24}{24}}}
\@writefile{nav}{\headcommand {\slideentry {5}{0}{5}{25/25}{}{0}}}
\@writefile{nav}{\headcommand {\beamer@framepages {25}{25}}}
\newlabel{fig:MicroControlador}{{10}{26}{DFD del ciclo for.\relax }{Doc-Start}{}}
\@writefile{snm}{\beamer@slide {fig:MicroControlador}{26}}
\@writefile{nav}{\headcommand {\slideentry {5}{0}{6}{26/26}{}{0}}}
\@writefile{nav}{\headcommand {\beamer@framepages {26}{26}}}
\@writefile{nav}{\headcommand {\slideentry {5}{0}{7}{27/27}{}{0}}}
\@writefile{nav}{\headcommand {\beamer@framepages {27}{27}}}
\newlabel{fig:MicroControlador}{{11}{28}{DFD del ciclo while.\relax }{Doc-Start}{}}
\@writefile{snm}{\beamer@slide {fig:MicroControlador}{28}}
\@writefile{nav}{\headcommand {\slideentry {5}{0}{8}{28/28}{}{0}}}
\@writefile{nav}{\headcommand {\beamer@framepages {28}{28}}}
\@writefile{nav}{\headcommand {\slideentry {5}{0}{9}{29/29}{}{0}}}
\@writefile{nav}{\headcommand {\beamer@framepages {29}{29}}}
\newlabel{fig:MicroControlador}{{12}{30}{DFD del ciclo do while.\relax }{Doc-Start}{}}
\@writefile{snm}{\beamer@slide {fig:MicroControlador}{30}}
\@writefile{nav}{\headcommand {\slideentry {5}{0}{10}{30/30}{}{0}}}
\@writefile{nav}{\headcommand {\beamer@framepages {30}{30}}}
\@writefile{nav}{\headcommand {\slideentry {5}{0}{11}{31/31}{}{0}}}
\@writefile{nav}{\headcommand {\beamer@framepages {31}{31}}}
\newlabel{fig:MicroControlador}{{13}{32}{DFD del break.\relax }{Doc-Start}{}}
\@writefile{snm}{\beamer@slide {fig:MicroControlador}{32}}
\@writefile{nav}{\headcommand {\slideentry {5}{0}{12}{32/32}{}{0}}}
\@writefile{nav}{\headcommand {\beamer@framepages {32}{32}}}
\@writefile{toc}{\beamer@sectionintoc {6}{Funciones}{33}{0}{6}}
\@writefile{nav}{\headcommand {\beamer@sectionpages {21}{32}}}
\@writefile{nav}{\headcommand {\beamer@subsectionpages {21}{32}}}
\@writefile{nav}{\headcommand {\sectionentry {6}{Funciones}{33}{Funciones}{0}}}
\@writefile{nav}{\headcommand {\slideentry {6}{0}{1}{33/33}{}{0}}}
\@writefile{nav}{\headcommand {\beamer@framepages {33}{33}}}
\@writefile{nav}{\headcommand {\slideentry {6}{0}{2}{34/34}{}{0}}}
\@writefile{nav}{\headcommand {\beamer@framepages {34}{34}}}
\@writefile{toc}{\beamer@sectionintoc {7}{Librerías}{35}{0}{7}}
\@writefile{nav}{\headcommand {\beamer@sectionpages {33}{34}}}
\@writefile{nav}{\headcommand {\beamer@subsectionpages {33}{34}}}
\@writefile{nav}{\headcommand {\sectionentry {7}{Librerías}{35}{Librerías}{0}}}
\@writefile{nav}{\headcommand {\slideentry {7}{0}{1}{35/35}{}{0}}}
\@writefile{nav}{\headcommand {\beamer@framepages {35}{35}}}
\@writefile{nav}{\headcommand {\slideentry {7}{0}{2}{36/36}{}{0}}}
\@writefile{nav}{\headcommand {\beamer@framepages {36}{36}}}
\@writefile{nav}{\headcommand {\slideentry {7}{0}{3}{37/37}{}{0}}}
\@writefile{nav}{\headcommand {\beamer@framepages {37}{37}}}
\@writefile{nav}{\headcommand {\slideentry {7}{0}{4}{38/38}{}{0}}}
\@writefile{nav}{\headcommand {\beamer@framepages {38}{38}}}
\@writefile{toc}{\beamer@sectionintoc {8}{Ejercicios}{39}{0}{8}}
\@writefile{nav}{\headcommand {\beamer@sectionpages {35}{38}}}
\@writefile{nav}{\headcommand {\beamer@subsectionpages {35}{38}}}
\@writefile{nav}{\headcommand {\sectionentry {8}{Ejercicios}{39}{Ejercicios}{0}}}
\@writefile{nav}{\headcommand {\slideentry {8}{0}{1}{39/39}{}{0}}}
\@writefile{nav}{\headcommand {\beamer@framepages {39}{39}}}
\@writefile{nav}{\headcommand {\slideentry {8}{0}{2}{40/40}{}{0}}}
\@writefile{nav}{\headcommand {\beamer@framepages {40}{40}}}
\@writefile{nav}{\headcommand {\slideentry {8}{0}{3}{41/41}{}{0}}}
\@writefile{nav}{\headcommand {\beamer@framepages {41}{41}}}
\@writefile{nav}{\headcommand {\slideentry {8}{0}{4}{42/42}{}{0}}}
\@writefile{nav}{\headcommand {\beamer@framepages {42}{42}}}
\@writefile{nav}{\headcommand {\beamer@partpages {1}{42}}}
\@writefile{nav}{\headcommand {\beamer@subsectionpages {39}{42}}}
\@writefile{nav}{\headcommand {\beamer@sectionpages {39}{42}}}
\@writefile{nav}{\headcommand {\beamer@documentpages {42}}}
\@writefile{nav}{\headcommand {\gdef \inserttotalframenumber {33}}}
\gdef \@abspage@last{42}
