_RB0 30 0 ABS 0
_RB1 31 0 ABS 0
_RB2 32 0 ABS 0
_RB3 33 0 ABS 0
__S0 800 0 ABS 0
__S1 74 0 ABS 0
__S2 0 0 ABS 0
__S3 0 0 ABS 0
__Hintentry 0 0 CODE 0
__Lintentry 0 0 CODE 0
_IOCB 96 0 ABS 0
_WPUB 95 0 ABS 0
_main 753 0 CODE 0
___sp 0 0 STACK 2
btemp 7E 0 ABS 0
start 0 0 CODE 0
main@teclado 72 0 COMMON 1
_TRISB 86 0 ABS 0
_TRISC 87 0 ABS 0
reset_vec 0 0 CODE 0
_PORTB 6 0 ABS 0
_PORTC 7 0 ABS 0
wtemp0 7E 0 ABS 0
__Hconfig 2008 0 CONFIG 4
__Lconfig 0 0 CONFIG 4
__Hram 0 0 ABS 0
__Lram 0 0 ABS 0
__Hfunctab 0 0 ENTRY 0
__Lfunctab 0 0 ENTRY 0
_OPTION_REG 81 0 ABS 0
__Hcommon 0 0 ABS 0
__Lcommon 0 0 ABS 0
__Heeprom_data 0 0 EEDATA 3
__Leeprom_data 0 0 EEDATA 3
___int_sp 0 0 STACK 2
_leer_teclado 6B0 0 CODE 0
_ANSELH 189 0 ABS 0
__Habs1 0 0 ABS 0
__Labs1 0 0 ABS 0
__Hsfr0 0 0 ABS 0
__Lsfr0 0 0 ABS 0
__Hsfr1 0 0 ABS 0
__Lsfr1 0 0 ABS 0
__Hsfr2 0 0 ABS 0
__Lsfr2 0 0 ABS 0
__Hsfr3 0 0 ABS 0
__Lsfr3 0 0 ABS 0
___stackhi 0 0 ABS 0
__Hcode 0 0 ABS 0
__Lcode 0 0 ABS 0
__Hinit 0 0 CODE 0
__Linit 0 0 CODE 0
__end_of_main 7FC 0 CODE 0
__Htext 0 0 ABS 0
__Ltext 0 0 ABS 0
end_of_initialization 7FC 0 CODE 0
___stacklo 0 0 ABS 0
__end_of_leer_teclado 753 0 CODE 0
?_leer_teclado 70 0 COMMON 1
__Hstrings 0 0 ABS 0
__Lstrings 0 0 ABS 0
__Hbank0 0 0 ABS 0
__Lbank0 0 0 ABS 0
__Hbank1 0 0 ABS 0
__Lbank1 0 0 ABS 0
__Hbank2 0 0 ABS 0
__Lbank2 0 0 ABS 0
__Hbank3 0 0 ABS 0
__Lbank3 0 0 ABS 0
___latbits 2 0 ABS 0
__Hpowerup 0 0 CODE 0
__Lpowerup 0 0 CODE 0
__ptext1 6B0 0 CODE 0
__Hclrtext 0 0 ABS 0
__Lclrtext 0 0 ABS 0
__end_of__initialization 7FC 0 CODE 0
__Hstack 0 0 STACK 2
__Lstack 0 0 STACK 2
__Hspace_0 800 0 ABS 0
__Lspace_0 0 0 ABS 0
__Hspace_1 74 0 ABS 0
__Lspace_1 0 0 ABS 0
__Hspace_2 0 0 ABS 0
__Lspace_2 0 0 ABS 0
__Hcinit 800 0 CODE 0
__Lcinit 7FC 0 CODE 0
__Hspace_3 0 0 ABS 0
__Lspace_3 0 0 ABS 0
__size_of_main 0 0 ABS 0
__Hspace_4 400F 0 ABS 0
__Lspace_4 0 0 ABS 0
__size_of_leer_teclado 0 0 ABS 0
__Hend_init 3 0 CODE 0
__Lend_init 0 0 CODE 0
__Hreset_vec 0 0 CODE 0
__Lreset_vec 0 0 CODE 0
intlevel0 0 0 ENTRY 0
intlevel1 0 0 ENTRY 0
intlevel2 0 0 ENTRY 0
intlevel3 0 0 ENTRY 0
intlevel4 0 0 ENTRY 0
intlevel5 0 0 ENTRY 0
__HcstackCOMMON 0 0 ABS 0
__LcstackCOMMON 0 0 ABS 0
__pcstackCOMMON 70 0 COMMON 1
start_initialization 7FC 0 CODE 0
__Hmaintext 0 0 ABS 0
__Lmaintext 0 0 ABS 0
__pmaintext 753 0 CODE 0
__initialization 7FC 0 CODE 0
%segments
reset_vec 0 5 CODE 0 0
cinit FF8 FFF CODE FF8 0
cstackCOMMON 70 73 COMMON 70 1
maintext EA6 FF7 CODE EA6 0
text1 D60 EA5 CODE D60 0
%locals
dist/default/production\Teclado_matricial.X.production.o
C:\Users\diego\AppData\Local\Temp\xcAsav8.s
448 7FC 0 CODE 0
451 7FC 0 CODE 0
457 7FC 0 CODE 0
459 7FC 0 CODE 0
460 7FD 0 CODE 0
main.c
65 753 0 CODE 0
67 753 0 CODE 0
69 753 0 CODE 0
70 756 0 CODE 0
71 759 0 CODE 0
72 75D 0 CODE 0
73 75F 0 CODE 0
74 761 0 CODE 0
76 762 0 CODE 0
77 765 0 CODE 0
81 768 0 CODE 0
83 771 0 CODE 0
86 772 0 CODE 0
87 776 0 CODE 0
89 777 0 CODE 0
90 77B 0 CODE 0
92 77C 0 CODE 0
93 780 0 CODE 0
95 781 0 CODE 0
96 785 0 CODE 0
98 786 0 CODE 0
99 78A 0 CODE 0
101 78B 0 CODE 0
102 78F 0 CODE 0
104 790 0 CODE 0
105 794 0 CODE 0
107 795 0 CODE 0
108 799 0 CODE 0
110 79A 0 CODE 0
111 79E 0 CODE 0
113 79F 0 CODE 0
114 7A3 0 CODE 0
116 7A4 0 CODE 0
117 7A8 0 CODE 0
119 7A9 0 CODE 0
120 7AD 0 CODE 0
122 7AE 0 CODE 0
123 7B2 0 CODE 0
125 7B3 0 CODE 0
126 7B7 0 CODE 0
128 7B8 0 CODE 0
129 7BC 0 CODE 0
131 7BD 0 CODE 0
132 7C1 0 CODE 0
133 7C2 0 CODE 0
133 7C4 0 CODE 0
133 7C9 0 CODE 0
133 7CC 0 CODE 0
133 7CF 0 CODE 0
133 7D2 0 CODE 0
133 7D5 0 CODE 0
133 7D8 0 CODE 0
133 7DB 0 CODE 0
133 7DE 0 CODE 0
133 7E1 0 CODE 0
133 7E4 0 CODE 0
133 7E7 0 CODE 0
133 7EA 0 CODE 0
133 7ED 0 CODE 0
133 7F0 0 CODE 0
133 7F3 0 CODE 0
133 7F6 0 CODE 0
17 6B0 0 CODE 0
19 6B0 0 CODE 0
21 6B8 0 CODE 0
22 6BA 0 CODE 0
23 6BE 0 CODE 0
24 6C3 0 CODE 0
25 6C7 0 CODE 0
26 6CC 0 CODE 0
27 6D0 0 CODE 0
28 6D5 0 CODE 0
29 6D9 0 CODE 0
31 6DE 0 CODE 0
32 6E0 0 CODE 0
33 6E4 0 CODE 0
34 6E9 0 CODE 0
35 6ED 0 CODE 0
36 6F2 0 CODE 0
37 6F6 0 CODE 0
38 6FB 0 CODE 0
39 6FF 0 CODE 0
41 704 0 CODE 0
42 706 0 CODE 0
43 70A 0 CODE 0
44 70F 0 CODE 0
45 713 0 CODE 0
46 718 0 CODE 0
47 71C 0 CODE 0
48 721 0 CODE 0
49 725 0 CODE 0
51 72A 0 CODE 0
52 72C 0 CODE 0
53 730 0 CODE 0
54 735 0 CODE 0
55 739 0 CODE 0
56 73E 0 CODE 0
57 742 0 CODE 0
58 747 0 CODE 0
59 74B 0 CODE 0
62 750 0 CODE 0
63 752 0 CODE 0
