__S0 800 0 ABS 0
__S1 7A 0 ABS 0
__S2 0 0 ABS 0
__S3 0 0 ABS 0
__Hintentry 0 0 CODE 0
__Lintentry 0 0 CODE 0
_main 7BF 0 CODE 0
___sp 0 0 STACK 2
btemp 7E 0 ABS 0
start 0 0 CODE 0
main@dato_adc 78 0 COMMON 1
_TRISA 85 0 ABS 0
_TRISC 87 0 ABS 0
_PORTA 5 0 ABS 0
reset_vec 0 0 CODE 0
_TRISD 88 0 ABS 0
_PORTC 7 0 ABS 0
_ANSEL 188 0 ABS 0
_PORTD 8 0 ABS 0
wtemp0 7E 0 ABS 0
__Hconfig 2008 0 CONFIG 4
__Lconfig 0 0 CONFIG 4
__size_of_Inicializar_ADC 0 0 ABS 0
__Hram 0 0 ABS 0
__Lram 0 0 ABS 0
__Hfunctab 0 0 ENTRY 0
__Lfunctab 0 0 ENTRY 0
_ADCON0 1F 0 ABS 0
_ADCON1 9F 0 ABS 0
__Hcommon 0 0 ABS 0
__Lcommon 0 0 ABS 0
__Heeprom_data 0 0 EEDATA 3
__Leeprom_data 0 0 EEDATA 3
___int_sp 0 0 STACK 2
_ADRESH 1E 0 ABS 0
__Habs1 0 0 ABS 0
__Labs1 0 0 ABS 0
_ADRESL 9E 0 ABS 0
__Hsfr0 0 0 ABS 0
__Lsfr0 0 0 ABS 0
__Hsfr1 0 0 ABS 0
__Lsfr1 0 0 ABS 0
__Hsfr2 0 0 ABS 0
__Lsfr2 0 0 ABS 0
__Hsfr3 0 0 ABS 0
__Lsfr3 0 0 ABS 0
___stackhi 0 0 ABS 0
_Inicializar_ADC 783 0 CODE 0
__Hcode 0 0 ABS 0
__Lcode 0 0 ABS 0
__Hinit 0 0 CODE 0
__Linit 0 0 CODE 0
__end_of_main 7FC 0 CODE 0
__Htext 0 0 ABS 0
__Ltext 0 0 ABS 0
end_of_initialization 7FC 0 CODE 0
___stacklo 0 0 ABS 0
__end_of_Inicializar_ADC 78B 0 CODE 0
__Hstrings 0 0 ABS 0
__Lstrings 0 0 ABS 0
__Hbank0 0 0 ABS 0
__Lbank0 0 0 ABS 0
__Hbank1 0 0 ABS 0
__Lbank1 0 0 ABS 0
__Hbank2 0 0 ABS 0
__Lbank2 0 0 ABS 0
__Hbank3 0 0 ABS 0
__Lbank3 0 0 ABS 0
___latbits 2 0 ABS 0
__Hpowerup 0 0 CODE 0
__Lpowerup 0 0 CODE 0
__ptext1 78B 0 CODE 0
__ptext2 783 0 CODE 0
__Hclrtext 0 0 ABS 0
__Lclrtext 0 0 ABS 0
__end_of__initialization 7FC 0 CODE 0
Leer_ADC@canal 74 0 COMMON 1
?_Leer_ADC 70 0 COMMON 1
__Hstack 0 0 STACK 2
__Lstack 0 0 STACK 2
__Hspace_0 800 0 ABS 0
__Lspace_0 0 0 ABS 0
__Hspace_1 7A 0 ABS 0
__Lspace_1 0 0 ABS 0
__Hspace_2 0 0 ABS 0
__Lspace_2 0 0 ABS 0
__Hcinit 800 0 CODE 0
__Lcinit 7FC 0 CODE 0
__Hspace_3 0 0 ABS 0
__Lspace_3 0 0 ABS 0
__size_of_main 0 0 ABS 0
__Hspace_4 400F 0 ABS 0
__Lspace_4 0 0 ABS 0
__end_of_Leer_ADC 7BF 0 CODE 0
__Hend_init 3 0 CODE 0
__Lend_init 0 0 CODE 0
_Leer_ADC 78B 0 CODE 0
_GO_nDONE F9 0 ABS 0
__Hreset_vec 0 0 CODE 0
__Lreset_vec 0 0 CODE 0
__size_of_Leer_ADC 0 0 ABS 0
intlevel0 0 0 ENTRY 0
intlevel1 0 0 ENTRY 0
intlevel2 0 0 ENTRY 0
intlevel3 0 0 ENTRY 0
intlevel4 0 0 ENTRY 0
intlevel5 0 0 ENTRY 0
__HcstackCOMMON 0 0 ABS 0
__LcstackCOMMON 0 0 ABS 0
__pcstackCOMMON 70 0 COMMON 1
start_initialization 7FC 0 CODE 0
__Hmaintext 0 0 ABS 0
__Lmaintext 0 0 ABS 0
__pmaintext 7BF 0 CODE 0
__initialization 7FC 0 CODE 0
%segments
reset_vec 0 5 CODE 0 0
cinit FF8 FFF CODE FF8 0
cstackCOMMON 70 79 COMMON 70 1
maintext F7E FF7 CODE F7E 0
text1 F16 F7D CODE F16 0
text2 F06 F15 CODE F06 0
%locals
dist/default/production\ADC_ejemplo_01.X.production.o
C:\Users\diego\AppData\Local\Temp\xcAsa3k.s
449 7FC 0 CODE 0
452 7FC 0 CODE 0
458 7FC 0 CODE 0
460 7FC 0 CODE 0
461 7FD 0 CODE 0
main.c
38 7BF 0 CODE 0
40 7BF 0 CODE 0
42 7BF 0 CODE 0
43 7C2 0 CODE 0
44 7C6 0 CODE 0
46 7CA 0 CODE 0
47 7CD 0 CODE 0
49 7D0 0 CODE 0
50 7D3 0 CODE 0
52 7D6 0 CODE 0
56 7DB 0 CODE 0
58 7E5 0 CODE 0
59 7E9 0 CODE 0
60 7EB 0 CODE 0
24 78B 0 CODE 0
26 78C 0 CODE 0
26 78E 0 CODE 0
27 792 0 CODE 0
29 795 0 CODE 0
30 79B 0 CODE 0
30 79E 0 CODE 0
30 7A1 0 CODE 0
30 7A3 0 CODE 0
31 7A8 0 CODE 0
32 7B1 0 CODE 0
33 7B4 0 CODE 0
35 7B8 0 CODE 0
36 7BE 0 CODE 0
18 783 0 CODE 0
20 783 0 CODE 0
21 787 0 CODE 0
22 78A 0 CODE 0
