__S0 800 0 ABS 0
__S1 7E 0 ABS 0
__S2 0 0 ABS 0
__S3 0 0 ABS 0
__Hintentry 0 0 CODE 0
__Lintentry 0 0 CODE 0
bits_seleccion@a 72 0 COMMON 1
_CHS0 FA 0 ABS 0
_CHS1 FB 0 ABS 0
_CHS2 FC 0 ABS 0
_CHS3 FD 0 ABS 0
_main 6D5 0 CODE 0
___sp 0 0 STACK 2
btemp 7E 0 ABS 0
start 0 0 CODE 0
main@dato_adc 7C 0 COMMON 1
_TRISC 87 0 ABS 0
reset_vec 0 0 CODE 0
_TRISD 88 0 ABS 0
_TRISE 89 0 ABS 0
_PORTC 7 0 ABS 0
_ANSEL 188 0 ABS 0
_PORTD 8 0 ABS 0
_PORTE 9 0 ABS 0
bits_seleccion@d 73 0 COMMON 1
wtemp0 7E 0 ABS 0
__Hconfig 2008 0 CONFIG 4
__Lconfig 0 0 CONFIG 4
__size_of_Inicializar_ADC 0 0 ABS 0
__Hram 0 0 ABS 0
__Lram 0 0 ABS 0
__Hfunctab 0 0 ENTRY 0
__Lfunctab 0 0 ENTRY 0
_ADCON0 1F 0 ABS 0
_ADCON1 9F 0 ABS 0
__Hcommon 0 0 ABS 0
__Lcommon 0 0 ABS 0
__Heeprom_data 0 0 EEDATA 3
__Leeprom_data 0 0 EEDATA 3
___int_sp 0 0 STACK 2
_ADRESH 1E 0 ABS 0
__Habs1 0 0 ABS 0
__Labs1 0 0 ABS 0
_ADRESL 9E 0 ABS 0
__Hsfr0 0 0 ABS 0
__Lsfr0 0 0 ABS 0
__Hsfr1 0 0 ABS 0
__Lsfr1 0 0 ABS 0
__Hsfr2 0 0 ABS 0
__Lsfr2 0 0 ABS 0
__Hsfr3 0 0 ABS 0
__Lsfr3 0 0 ABS 0
___stackhi 0 0 ABS 0
_Inicializar_ADC 685 0 CODE 0
__size_of_seleccionar_canal 0 0 ABS 0
__Hcode 0 0 ABS 0
__Lcode 0 0 ABS 0
__HcstackBANK0 0 0 ABS 0
__LcstackBANK0 0 0 ABS 0
__pcstackBANK0 20 0 BANK0 1
__Hinit 0 0 CODE 0
__Linit 0 0 CODE 0
__end_of_main 713 0 CODE 0
__Htext 0 0 ABS 0
__Ltext 0 0 ABS 0
end_of_initialization 7FC 0 CODE 0
___stacklo 0 0 ABS 0
__end_of_Inicializar_ADC 68D 0 CODE 0
__end_of_seleccionar_canal 7FC 0 CODE 0
__Hstrings 0 0 ABS 0
__Lstrings 0 0 ABS 0
__Hbank0 0 0 ABS 0
__Lbank0 0 0 ABS 0
__Hbank1 0 0 ABS 0
__Lbank1 0 0 ABS 0
bits_seleccion@c 70 0 COMMON 1
__Hbank2 0 0 ABS 0
__Lbank2 0 0 ABS 0
__Hbank3 0 0 ABS 0
__Lbank3 0 0 ABS 0
___latbits 2 0 ABS 0
__Hpowerup 0 0 CODE 0
__Lpowerup 0 0 CODE 0
__ptext1 68D 0 CODE 0
__ptext2 713 0 CODE 0
__ptext3 6AB 0 CODE 0
__ptext4 685 0 CODE 0
__Hclrtext 0 0 ABS 0
__Lclrtext 0 0 ABS 0
__end_of__initialization 7FC 0 CODE 0
Leer_ADC@canal 7B 0 COMMON 1
?_Leer_ADC 77 0 COMMON 1
__Hstack 0 0 STACK 2
__Lstack 0 0 STACK 2
_seleccionar_canal 713 0 CODE 0
__Hspace_0 800 0 ABS 0
__Lspace_0 0 0 ABS 0
_bits_seleccion 6AB 0 CODE 0
__Hspace_1 7E 0 ABS 0
__Lspace_1 0 0 ABS 0
__Hspace_2 0 0 ABS 0
__Lspace_2 0 0 ABS 0
__Hcinit 800 0 CODE 0
__Lcinit 7FC 0 CODE 0
__Hspace_3 0 0 ABS 0
__Lspace_3 0 0 ABS 0
__size_of_main 0 0 ABS 0
__Hspace_4 400F 0 ABS 0
__Lspace_4 0 0 ABS 0
__end_of_Leer_ADC 6AB 0 CODE 0
bits_seleccion@b 71 0 COMMON 1
__Hend_init 3 0 CODE 0
__Lend_init 0 0 CODE 0
_Leer_ADC 68D 0 CODE 0
seleccionar_canal@canal 76 0 COMMON 1
_GO_nDONE F9 0 ABS 0
__Hreset_vec 0 0 CODE 0
__Lreset_vec 0 0 CODE 0
__size_of_Leer_ADC 0 0 ABS 0
intlevel0 0 0 ENTRY 0
intlevel1 0 0 ENTRY 0
intlevel2 0 0 ENTRY 0
intlevel3 0 0 ENTRY 0
intlevel4 0 0 ENTRY 0
intlevel5 0 0 ENTRY 0
__HcstackCOMMON 0 0 ABS 0
__LcstackCOMMON 0 0 ABS 0
__pcstackCOMMON 70 0 COMMON 1
__size_of_bits_seleccion 0 0 ABS 0
start_initialization 7FC 0 CODE 0
__Hmaintext 0 0 ABS 0
__Lmaintext 0 0 ABS 0
__pmaintext 6D5 0 CODE 0
__end_of_bits_seleccion 6D5 0 CODE 0
__initialization 7FC 0 CODE 0
%segments
reset_vec 0 5 CODE 0 0
cinit FF8 FFF CODE FF8 0
cstackCOMMON 70 7D COMMON 70 1
cstackBANK0 20 22 BANK0 20 1
text2 E26 FF7 CODE E26 0
maintext DAA E25 CODE DAA 0
text3 D56 DA9 CODE D56 0
text1 D1A D55 CODE D1A 0
text4 D0A D19 CODE D0A 0
%locals
dist/default/production\ADC_ejemplo_03.X.production.o
C:\Users\diego\AppData\Local\Temp\xcAs4ug.s
459 7FC 0 CODE 0
462 7FC 0 CODE 0
468 7FC 0 CODE 0
470 7FC 0 CODE 0
471 7FD 0 CODE 0
main.c
96 6D5 0 CODE 0
98 6D5 0 CODE 0
100 6D5 0 CODE 0
101 6D8 0 CODE 0
102 6DC 0 CODE 0
104 6E0 0 CODE 0
105 6E3 0 CODE 0
107 6E6 0 CODE 0
108 6E9 0 CODE 0
110 6EC 0 CODE 0
114 6F1 0 CODE 0
116 6FB 0 CODE 0
117 6FF 0 CODE 0
118 701 0 CODE 0
86 68D 0 CODE 0
88 68E 0 CODE 0
89 694 0 CODE 0
90 69D 0 CODE 0
91 6A0 0 CODE 0
93 6A4 0 CODE 0
94 6AA 0 CODE 0
32 713 0 CODE 0
34 714 0 CODE 0
36 71D 0 CODE 0
39 71E 0 CODE 0
40 727 0 CODE 0
42 728 0 CODE 0
43 732 0 CODE 0
45 733 0 CODE 0
46 73D 0 CODE 0
48 73E 0 CODE 0
49 749 0 CODE 0
51 74A 0 CODE 0
52 754 0 CODE 0
54 755 0 CODE 0
55 760 0 CODE 0
57 761 0 CODE 0
58 76C 0 CODE 0
60 76D 0 CODE 0
61 779 0 CODE 0
63 77A 0 CODE 0
64 783 0 CODE 0
66 784 0 CODE 0
67 78E 0 CODE 0
69 78F 0 CODE 0
70 799 0 CODE 0
72 79A 0 CODE 0
73 7A5 0 CODE 0
75 7A6 0 CODE 0
76 7B0 0 CODE 0
78 7B1 0 CODE 0
79 7BC 0 CODE 0
81 7BD 0 CODE 0
82 7C6 0 CODE 0
83 7C7 0 CODE 0
83 7CC 0 CODE 0
83 7D1 0 CODE 0
83 7D4 0 CODE 0
83 7D7 0 CODE 0
83 7DA 0 CODE 0
83 7DD 0 CODE 0
83 7E0 0 CODE 0
83 7E3 0 CODE 0
83 7E6 0 CODE 0
83 7E9 0 CODE 0
83 7EC 0 CODE 0
83 7EF 0 CODE 0
83 7F2 0 CODE 0
83 7F5 0 CODE 0
83 7F8 0 CODE 0
84 7FB 0 CODE 0
24 6AB 0 CODE 0
26 6AC 0 CODE 0
27 6B6 0 CODE 0
28 6C0 0 CODE 0
29 6CA 0 CODE 0
30 6D4 0 CODE 0
18 685 0 CODE 0
20 685 0 CODE 0
21 689 0 CODE 0
22 68C 0 CODE 0
